# this is what class1_grades.txt should look like 
N00000001,54
N00000002,65
N00000003,79
N00000004,68
N00000005,78
N00000006,66
N00000007,87
N00000008,62
N00000009,81
N00000010,73
N00000011,81
N00000012,73
N00000013,68
N00000014,73
N00000015,67
N00000016,86
N00000017,61
N00000018,73
N00000019,73
N00000020,68
